metano brucia
	2CH4 + 2O2 -> CO2 + 2H2O

n(CH4) = 1000gm/16[g/mol] = 62,5[mol]

62,5 mol CO2

quantità teorica = m(CO2) = n*MM = 62,5[mol] * 44[g/mol] = 2750[g]
quantità reale = 2250
R {resa} = 2250/2750 * 100 = 82%

-----------------------------------------------------
N2 + 3H2 = 2NH3

R = 75%

m(NH3) = 1500

n = 1500/17 = 88,2[mol]

88*100/75 = 117.6[mol]

n(N) = n(NH3)/2 = 58,8[mol]

3:2 = x : 117,6
x = 176,4 mol
n(H2) = 352,8[mol]
m(N) = 58,8 (H) * 28 = 1646,4[g]



____________________-----------------------________________________-

H2SO4 (ossoacido) + 2NaOH (idrossido) -> Na(SO4) + 2H2O (doppio scambio)

C(m/v) = 20%
V = 100ml
M = 1,5 (mol/L)

n = M*V
  = 1,5 (mol/L) * 0.1 L = 0.15 mol

n(H2SO4) = 0,15 mol
n(NaOH) = 0,30 mol
m(NaOH) = 0,30 * (23+16+1) = 12g
M(H2SO4) = 0,15 * (1*2 + 32 + 16*4) = 14,7g
C(m/v) = m(H2SO4)/V(soluzione) * 100
V = m(H2SO4)/C(m/V) * 100 = 72,5 ml

-_-_-_-_-_-_-_-_-_-_-_-_-_-_-_-_-_-_-_-_-_-_-_-_-_-_-_-_-_-_-_-_-_-_-_-_-_-_-_-_-_-_-_-_-_-_-_-_-_-_-_-_-_-_-_-_-_-_-_-_-_-_-_-_-_-_-_-_-_-_-_-_-_-_
2HClO4 + Cu(OH)2 = Cu(ClO4)2 + 2H2O

M = 2 (mol/L)
d = 1,05 (g/L)
m = 15 g
R = 95%

xg = 15g*95/100 = 15,79 g
MM =  63,5 + 35*2 + 16*8 = 261,5 (g/mol)
n(Ca(ClO4)2) = 15,79g/261,5(g/mol) = 0,06 mol
n(HClO4) = 0,12 mol
V = n(HClO4)/M = 0,12~~mol~~/2(L/~~mol~~) = 0,06L



Van't Hoff
NaCl + H2O = Na[+] + Cl[-] + H2O
i = 2
MgCl2 + H2O = Mg[2+] + 2Cl[-] + H2O
i = 3

-_-_-_-_-_-_-_-_-_-_-_-_-_-_-_-_-_-_-_-_-_-_-_-_-_-_-_-_-_-_-_-_-_-_-_-_-_-_-_-_-_-_-_-_-_-_-_-_-_-_-_-_-_-_-_-_-_-_-_-_-_-_-_-_-_-_-_-_-_-_-_-_-_-_-_-_-_-_-_-_-_-

Kcr = 3,59 (C * mol^-1 * kg)
tcr(solvente) = 16,6 C
tcr(soluzione) = 4 C
Δtcr = 16,6 - 4 = 12,6
i = 1
Δtcr = kcr * m * i
m = Δtcr/kcr*i = 3,51

-_-_-_-_-_-_-_-_-_-_-_-_-_-_-_-_-_-_-_-_-_-_-_-_-_-_-_-_-_-_-_-_-_-_-_-_-_-_-_-_-_-_-_-_-_-_-_-_-_-_-_-_-_-_-_-_-_-_-_-_-_-_-_-_-_-_-_-_-_-_-_-_-_-_-_-_-_-_-_-_-_-
T = -0,184 C 
m(H2O) = 25g
m(C12H22O11) = ?
daltaT = m * ka * i
m = 0.184/1,86 = 0,1 mol/kg
m = n/kg => n = m*Kg = 0,1mol/kg * 0,025 = 0,0025 mol
m(C12H22O11) = 0,0025 * 336 = 0,84 g









