    |-> federalismo e frammentazione potere -> finisce con monarchie nazionali
    |
    |-> mondo piccolo -> scoperte le ampliano
medio evo
    |-> unità religiosa
    |		1 fede 	  |
    | 		1 dio 	  |----|\ unità religiosa va | la religione giustifica
    | 		1 pastore |----|/      in pezzi      | il potere
    |-> visione simbolica e teocentrica
